^C:\USERS\ADMIN\DOCUMENTS\DES\DES\STDAFX.CPP
C:\WINDOWS\GLOBALIZATION\SORTING\SORTDEFAULT.NLS
D:\PROGRAMY\VISUAL STUDIO\VC\BIN\1033\CLUI.DLL
C:\WINDOWS\SYSTEM32\RSAENH.DLL
C:\WINDOWS\SYSTEM32\TZRES.DLL
C:\USERS\ADMIN\DOCUMENTS\DES\DES\STDAFX.H
C:\USERS\ADMIN\DOCUMENTS\DES\DES\TARGETVER.H
C:\PROGRAM FILES (X86)\WINDOWS KITS\8.1\INCLUDE\SHARED\SDKDDKVER.H
C:\PROGRAM FILES (X86)\WINDOWS KITS\10\INCLUDE\10.0.10240.0\UCRT\STDIO.H
C:\PROGRAM FILES (X86)\WINDOWS KITS\10\INCLUDE\10.0.10240.0\UCRT\CORECRT.H
D:\PROGRAMY\VISUAL STUDIO\VC\INCLUDE\VCRUNTIME.H
D:\PROGRAMY\VISUAL STUDIO\VC\INCLUDE\SAL.H
D:\PROGRAMY\VISUAL STUDIO\VC\INCLUDE\CONCURRENCYSAL.H
D:\PROGRAMY\VISUAL STUDIO\VC\INCLUDE\VADEFS.H
C:\PROGRAM FILES (X86)\WINDOWS KITS\10\INCLUDE\10.0.10240.0\UCRT\CORECRT_WSTDIO.H
C:\PROGRAM FILES (X86)\WINDOWS KITS\10\INCLUDE\10.0.10240.0\UCRT\CORECRT_STDIO_CONFIG.H
C:\PROGRAM FILES (X86)\WINDOWS KITS\10\INCLUDE\10.0.10240.0\UCRT\TCHAR.H
C:\PROGRAM FILES (X86)\WINDOWS KITS\10\INCLUDE\10.0.10240.0\UCRT\WCHAR.H
C:\PROGRAM FILES (X86)\WINDOWS KITS\10\INCLUDE\10.0.10240.0\UCRT\CORECRT_MEMCPY_S.H
C:\PROGRAM FILES (X86)\WINDOWS KITS\10\INCLUDE\10.0.10240.0\UCRT\ERRNO.H
D:\PROGRAMY\VISUAL STUDIO\VC\INCLUDE\VCRUNTIME_STRING.H
C:\PROGRAM FILES (X86)\WINDOWS KITS\10\INCLUDE\10.0.10240.0\UCRT\CORECRT_WCONIO.H
C:\PROGRAM FILES (X86)\WINDOWS KITS\10\INCLUDE\10.0.10240.0\UCRT\CORECRT_WCTYPE.H
C:\PROGRAM FILES (X86)\WINDOWS KITS\10\INCLUDE\10.0.10240.0\UCRT\CORECRT_WDIRECT.H
C:\PROGRAM FILES (X86)\WINDOWS KITS\10\INCLUDE\10.0.10240.0\UCRT\CORECRT_WIO.H
C:\PROGRAM FILES (X86)\WINDOWS KITS\10\INCLUDE\10.0.10240.0\UCRT\CORECRT_SHARE.H
C:\PROGRAM FILES (X86)\WINDOWS KITS\10\INCLUDE\10.0.10240.0\UCRT\CORECRT_WPROCESS.H
C:\PROGRAM FILES (X86)\WINDOWS KITS\10\INCLUDE\10.0.10240.0\UCRT\CORECRT_WSTDLIB.H
C:\PROGRAM FILES (X86)\WINDOWS KITS\10\INCLUDE\10.0.10240.0\UCRT\CORECRT_WSTRING.H
C:\PROGRAM FILES (X86)\WINDOWS KITS\10\INCLUDE\10.0.10240.0\UCRT\CORECRT_WTIME.H
C:\PROGRAM FILES (X86)\WINDOWS KITS\10\INCLUDE\10.0.10240.0\UCRT\SYS\STAT.H
C:\PROGRAM FILES (X86)\WINDOWS KITS\10\INCLUDE\10.0.10240.0\UCRT\SYS\TYPES.H
D:\PROGRAMY\VISUAL STUDIO\VC\INCLUDE\FSTREAM
D:\PROGRAMY\VISUAL STUDIO\VC\INCLUDE\ISTREAM
D:\PROGRAMY\VISUAL STUDIO\VC\INCLUDE\OSTREAM
D:\PROGRAMY\VISUAL STUDIO\VC\INCLUDE\IOS
D:\PROGRAMY\VISUAL STUDIO\VC\INCLUDE\XLOCNUM
D:\PROGRAMY\VISUAL STUDIO\VC\INCLUDE\CLIMITS
D:\PROGRAMY\VISUAL STUDIO\VC\INCLUDE\YVALS.H
D:\PROGRAMY\VISUAL STUDIO\VC\INCLUDE\XKEYCHECK.H
D:\PROGRAMY\VISUAL STUDIO\VC\INCLUDE\CRTDEFS.H
D:\PROGRAMY\VISUAL STUDIO\VC\INCLUDE\USE_ANSI.H
D:\PROGRAMY\VISUAL STUDIO\VC\INCLUDE\LIMITS.H
D:\PROGRAMY\VISUAL STUDIO\VC\INCLUDE\CMATH
C:\PROGRAM FILES (X86)\WINDOWS KITS\10\INCLUDE\10.0.10240.0\UCRT\MATH.H
D:\PROGRAMY\VISUAL STUDIO\VC\INCLUDE\XTGMATH.H
D:\PROGRAMY\VISUAL STUDIO\VC\INCLUDE\XTR1COMMON
D:\PROGRAMY\VISUAL STUDIO\VC\INCLUDE\CSTDLIB
C:\PROGRAM FILES (X86)\WINDOWS KITS\10\INCLUDE\10.0.10240.0\UCRT\STDLIB.H
C:\PROGRAM FILES (X86)\WINDOWS KITS\10\INCLUDE\10.0.10240.0\UCRT\CORECRT_MALLOC.H
C:\PROGRAM FILES (X86)\WINDOWS KITS\10\INCLUDE\10.0.10240.0\UCRT\CORECRT_SEARCH.H
C:\PROGRAM FILES (X86)\WINDOWS KITS\10\INCLUDE\10.0.10240.0\UCRT\STDDEF.H
D:\PROGRAMY\VISUAL STUDIO\VC\INCLUDE\CSTDIO
D:\PROGRAMY\VISUAL STUDIO\VC\INCLUDE\STREAMBUF
D:\PROGRAMY\VISUAL STUDIO\VC\INCLUDE\XIOSBASE
D:\PROGRAMY\VISUAL STUDIO\VC\INCLUDE\XLOCALE
D:\PROGRAMY\VISUAL STUDIO\VC\INCLUDE\CSTRING
C:\PROGRAM FILES (X86)\WINDOWS KITS\10\INCLUDE\10.0.10240.0\UCRT\STRING.H
C:\PROGRAM FILES (X86)\WINDOWS KITS\10\INCLUDE\10.0.10240.0\UCRT\CORECRT_MEMORY.H
D:\PROGRAMY\VISUAL STUDIO\VC\INCLUDE\STDEXCEPT
D:\PROGRAMY\VISUAL STUDIO\VC\INCLUDE\EXCEPTION
D:\PROGRAMY\VISUAL STUDIO\VC\INCLUDE\TYPE_TRAITS
D:\PROGRAMY\VISUAL STUDIO\VC\INCLUDE\XSTDDEF
D:\PROGRAMY\VISUAL STUDIO\VC\INCLUDE\CSTDDEF
D:\PROGRAMY\VISUAL STUDIO\VC\INCLUDE\INITIALIZER_LIST
C:\PROGRAM FILES (X86)\WINDOWS KITS\10\INCLUDE\10.0.10240.0\UCRT\MALLOC.H
D:\PROGRAMY\VISUAL STUDIO\VC\INCLUDE\VCRUNTIME_EXCEPTION.H
D:\PROGRAMY\VISUAL STUDIO\VC\INCLUDE\EH.H
C:\PROGRAM FILES (X86)\WINDOWS KITS\10\INCLUDE\10.0.10240.0\UCRT\CORECRT_TERMINATE.H
D:\PROGRAMY\VISUAL STUDIO\VC\INCLUDE\XSTRING
D:\PROGRAMY\VISUAL STUDIO\VC\INCLUDE\XMEMORY0
D:\PROGRAMY\VISUAL STUDIO\VC\INCLUDE\CSTDINT
D:\PROGRAMY\VISUAL STUDIO\VC\INCLUDE\STDINT.H
D:\PROGRAMY\VISUAL STUDIO\VC\INCLUDE\LIMITS
D:\PROGRAMY\VISUAL STUDIO\VC\INCLUDE\YMATH.H
D:\PROGRAMY\VISUAL STUDIO\VC\INCLUDE\CFLOAT
C:\PROGRAM FILES (X86)\WINDOWS KITS\10\INCLUDE\10.0.10240.0\UCRT\FLOAT.H
D:\PROGRAMY\VISUAL STUDIO\VC\INCLUDE\CWCHAR
D:\PROGRAMY\VISUAL STUDIO\VC\INCLUDE\NEW
D:\PROGRAMY\VISUAL STUDIO\VC\INCLUDE\VCRUNTIME_NEW.H
D:\PROGRAMY\VISUAL STUDIO\VC\INCLUDE\XUTILITY
D:\PROGRAMY\VISUAL STUDIO\VC\INCLUDE\UTILITY
D:\PROGRAMY\VISUAL STUDIO\VC\INCLUDE\IOSFWD
C:\PROGRAM FILES (X86)\WINDOWS KITS\10\INCLUDE\10.0.10240.0\UCRT\CRTDBG.H
D:\PROGRAMY\VISUAL STUDIO\VC\INCLUDE\VCRUNTIME_NEW_DEBUG.H
D:\PROGRAMY\VISUAL STUDIO\VC\INCLUDE\XATOMIC0.H
D:\PROGRAMY\VISUAL STUDIO\VC\INCLUDE\INTRIN.H
D:\PROGRAMY\VISUAL STUDIO\VC\INCLUDE\SETJMP.H
D:\PROGRAMY\VISUAL STUDIO\VC\INCLUDE\IMMINTRIN.H
D:\PROGRAMY\VISUAL STUDIO\VC\INCLUDE\WMMINTRIN.H
D:\PROGRAMY\VISUAL STUDIO\VC\INCLUDE\NMMINTRIN.H
D:\PROGRAMY\VISUAL STUDIO\VC\INCLUDE\SMMINTRIN.H
D:\PROGRAMY\VISUAL STUDIO\VC\INCLUDE\TMMINTRIN.H
D:\PROGRAMY\VISUAL STUDIO\VC\INCLUDE\PMMINTRIN.H
D:\PROGRAMY\VISUAL STUDIO\VC\INCLUDE\EMMINTRIN.H
D:\PROGRAMY\VISUAL STUDIO\VC\INCLUDE\XMMINTRIN.H
D:\PROGRAMY\VISUAL STUDIO\VC\INCLUDE\MMINTRIN.H
D:\PROGRAMY\VISUAL STUDIO\VC\INCLUDE\AMMINTRIN.H
D:\PROGRAMY\VISUAL STUDIO\VC\INCLUDE\MM3DNOW.H
D:\PROGRAMY\VISUAL STUDIO\VC\INCLUDE\TYPEINFO
D:\PROGRAMY\VISUAL STUDIO\VC\INCLUDE\VCRUNTIME_TYPEINFO.H
D:\PROGRAMY\VISUAL STUDIO\VC\INCLUDE\XLOCINFO
D:\PROGRAMY\VISUAL STUDIO\VC\INCLUDE\XLOCINFO.H
C:\PROGRAM FILES (X86)\WINDOWS KITS\10\INCLUDE\10.0.10240.0\UCRT\CTYPE.H
C:\PROGRAM FILES (X86)\WINDOWS KITS\10\INCLUDE\10.0.10240.0\UCRT\LOCALE.H
D:\PROGRAMY\VISUAL STUDIO\VC\INCLUDE\XFACET
D:\PROGRAMY\VISUAL STUDIO\VC\INCLUDE\SYSTEM_ERROR
D:\PROGRAMY\VISUAL STUDIO\VC\INCLUDE\CERRNO
C:\PROGRAM FILES (X86)\WINDOWS KITS\10\INCLUDE\10.0.10240.0\UCRT\SHARE.H
D:\PROGRAMY\VISUAL STUDIO\VC\INCLUDE\IOSTREAM
D:\PROGRAMY\VISUAL STUDIO\VC\INCLUDE\VECTOR
D:\PROGRAMY\VISUAL STUDIO\VC\INCLUDE\XMEMORY
D:\PROGRAMY\VISUAL STUDIO\VC\INCLUDE\STRING
D:\PROGRAMY\VISUAL STUDIO\VC\INCLUDE\ALGORITHM
D:\PROGRAMY\VISUAL STUDIO\VC\INCLUDE\ITERATOR
D:\PROGRAMY\VISUAL STUDIO\VC\INCLUDE\LOCALE
D:\PROGRAMY\VISUAL STUDIO\VC\INCLUDE\XLOCBUF
D:\PROGRAMY\VISUAL STUDIO\VC\INCLUDE\XLOCMES
D:\PROGRAMY\VISUAL STUDIO\VC\INCLUDE\XLOCMON
D:\PROGRAMY\VISUAL STUDIO\VC\INCLUDE\XLOCTIME
D:\PROGRAMY\VISUAL STUDIO\VC\INCLUDE\CTIME
C:\PROGRAM FILES (X86)\WINDOWS KITS\10\INCLUDE\10.0.10240.0\UCRT\TIME.H
D:\PROGRAMY\VISUAL STUDIO\VC\INCLUDE\CODECVT
C:\PROGRAM FILES (X86)\WINDOWS KITS\10\INCLUDE\10.0.10240.0\UCRT\FCNTL.H
C:\PROGRAM FILES (X86)\WINDOWS KITS\10\INCLUDE\10.0.10240.0\UCRT\IO.H
C:\PROGRAM FILES (X86)\WINDOWS KITS\10\INCLUDE\10.0.10240.0\UCRT\CORECRT_IO.H
D:\PROGRAMY\VISUAL STUDIO\VC\INCLUDE\MEMORY
^C:\USERS\ADMIN\DOCUMENTS\DES\DES\MAIN.CPP
C:\USERS\ADMIN\DOCUMENTS\DES\DES\DEBUG\DATAENCRYPTIONSTANDARD.PCH
C:\USERS\ADMIN\DOCUMENTS\DES\DES\DES.H
^C:\USERS\ADMIN\DOCUMENTS\DES\DES\DES.CPP
C:\USERS\ADMIN\DOCUMENTS\DES\DES\DEBUG\DATAENCRYPTIONSTANDARD.PCH
C:\USERS\ADMIN\DOCUMENTS\DES\DES\DES.H
C:\WINDOWS\GLOBALIZATION\SORTING\SORTDEFAULT.NLS
D:\PROGRAMY\VISUAL STUDIO\VC\BIN\1033\CLUI.DLL
C:\WINDOWS\SYSTEM32\RSAENH.DLL
C:\WINDOWS\SYSTEM32\TZRES.DLL
