^C:\USERS\ADMIN\DOCUMENTS\DES\DES\DEBUG\DES.OBJ|C:\USERS\ADMIN\DOCUMENTS\DES\DES\DEBUG\MAIN.OBJ|C:\USERS\ADMIN\DOCUMENTS\DES\DES\DEBUG\STDAFX.OBJ
C:\USERS\ADMIN\DOCUMENTS\DES\DEBUG\DATAENCRYPTIONSTANDARD.ILK
C:\USERS\ADMIN\DOCUMENTS\DES\DEBUG\DATAENCRYPTIONSTANDARD.EXE
C:\USERS\ADMIN\DOCUMENTS\DES\DEBUG\DATAENCRYPTIONSTANDARD.PDB
